{
  "model": {
    "name": "Measure Service",
    "dimension": [
      {
        "name": "Int",
        "level": [
          {
            "name": "Int",
            "attribute": [
              {
                "name": "label",
                "type": {
                  "kind": "INT"
                },
                "predicate": {
                  "name": "int:eq_2",
                  "volatile": false
                }
              },
              {
                "name": "id",
                "type": {
                  "kind": "INT"
                },
                "predicate": {
                  "name": "int:eq_2",
                  "volatile": false
                }
              }
            ],
            "caption": "Int",
            "type": {
              "kind": "INT"
            }
          }
        ],
        "hierarchy": [
          {
            "name": "Int",
            "path": [
              {
                "level": "Int"
              }
            ]
          }
        ],
        "unwinds": true,
        "caption": "Int"
      },
      {
        "name": "Boolean",
        "level": [
          {
            "name": "Boolean",
            "attribute": [
              {
                "name": "label",
                "type": {
                  "kind": "BOOLEAN"
                },
                "predicate": {
                  "name": "boolean:eq_2",
                  "volatile": false
                }
              },
              {
                "name": "id",
                "type": {
                  "kind": "BOOLEAN"
                },
                "predicate": {
                  "name": "boolean:eq_2",
                  "volatile": false
                }
              }
            ],
            "caption": "Boolean",
            "type": {
              "kind": "BOOLEAN"
            }
          }
        ],
        "hierarchy": [
          {
            "name": "Boolean",
            "path": [
              {
                "level": "Boolean"
              }
            ]
          }
        ],
        "unwinds": true,
        "caption": "Boolean"
      },
      {
        "name": "location",
        "level": [
          {
            "name": "region",
            "attribute": [
              {
                "name": "partitionid",
                "type": {
                  "kind": "INT"
                },
                "predicate": {
                  "name": "dims:location:region_num",
                  "volatile": false
                }
              },
              {
                "name": "id",
                "type": {
                  "kind": "STRING"
                },
                "predicate": {
                  "name": "dims:location:region_id",
                  "volatile": false
                }
              },
              {
                "name": "label",
                "type": {
                  "kind": "STRING"
                },
                "predicate": {
                  "name": "dims:location:region_id",
                  "volatile": false
                }
              }
            ],
            "caption": "region",
            "type": {
              "kind": "NAMED",
              "named": "dims:location:region"
            }
          },
          {
            "name": "store",
            "attribute": [
              {
                "name": "partitionid",
                "type": {
                  "kind": "INT"
                },
                "predicate": {
                  "name": "dims:location:store_num",
                  "volatile": false
                }
              },
              {
                "name": "id",
                "type": {
                  "kind": "STRING"
                },
                "predicate": {
                  "name": "dims:location:store_id",
                  "volatile": false
                }
              },
              {
                "name": "label",
                "type": {
                  "kind": "STRING"
                },
                "predicate": {
                  "name": "dims:location:store_id",
                  "volatile": false
                }
              }
            ],
            "caption": "store",
            "type": {
              "kind": "NAMED",
              "named": "dims:location:store"
            }
          },
          {
            "name": "country",
            "attribute": [
              {
                "name": "partitionid",
                "type": {
                  "kind": "INT"
                },
                "predicate": {
                  "name": "dims:location:country_num",
                  "volatile": false
                }
              },
              {
                "name": "id",
                "type": {
                  "kind": "STRING"
                },
                "predicate": {
                  "name": "dims:location:country_id",
                  "volatile": false
                }
              },
              {
                "name": "label",
                "type": {
                  "kind": "STRING"
                },
                "predicate": {
                  "name": "dims:location:country_id",
                  "volatile": false
                }
              }
            ],
            "caption": "country",
            "type": {
              "kind": "NAMED",
              "named": "dims:location:country"
            }
          }
        ],
        "edge": [
          {
            "source_level": "store",
            "target_level": "region",
            "pred": {
              "name": "dims:location:store2region",
              "volatile": false
            }
          },
          {
            "source_level": "region",
            "target_level": "country",
            "pred": {
              "name": "dims:location:region2country",
              "volatile": false
            }
          }
        ],
        "hierarchy": [
          {
            "name": "Primary",
            "path": [
              {
                "level": "store",
                "pred": {
                  "name": "dims:location:store2region",
                  "volatile": false
                }
              },
              {
                "level": "region",
                "pred": {
                  "name": "dims:location:region2country",
                  "volatile": false
                }
              },
              {
                "level": "country"
              }
            ]
          }
        ],
        "default_hierarchy": "Primary",
        "unwinds": true,
        "caption": "location"
      },
      {
        "name": "product",
        "level": [
          {
            "name": "category",
            "attribute": [
              {
                "name": "partitionid",
                "type": {
                  "kind": "INT"
                },
                "predicate": {
                  "name": "dims:product:category_num",
                  "volatile": false
                }
              },
              {
                "name": "id",
                "type": {
                  "kind": "STRING"
                },
                "predicate": {
                  "name": "dims:product:category_id",
                  "volatile": false
                }
              },
              {
                "name": "label",
                "type": {
                  "kind": "STRING"
                },
                "predicate": {
                  "name": "dims:product:category_id",
                  "volatile": false
                }
              }
            ],
            "caption": "category",
            "type": {
              "kind": "NAMED",
              "named": "dims:product:category"
            }
          },
          {
            "name": "sku",
            "attribute": [
              {
                "name": "partitionid",
                "type": {
                  "kind": "INT"
                },
                "predicate": {
                  "name": "dims:product:sku_num",
                  "volatile": false
                }
              },
              {
                "name": "id",
                "type": {
                  "kind": "STRING"
                },
                "predicate": {
                  "name": "dims:product:sku_id",
                  "volatile": false
                }
              },
              {
                "name": "label",
                "type": {
                  "kind": "STRING"
                },
                "predicate": {
                  "name": "dims:product:sku_id",
                  "volatile": false
                }
              }
            ],
            "caption": "sku",
            "type": {
              "kind": "NAMED",
              "named": "dims:product:sku"
            }
          },
          {
            "name": "class",
            "attribute": [
              {
                "name": "partitionid",
                "type": {
                  "kind": "INT"
                },
                "predicate": {
                  "name": "dims:product:class_num",
                  "volatile": false
                }
              },
              {
                "name": "id",
                "type": {
                  "kind": "STRING"
                },
                "predicate": {
                  "name": "dims:product:class_id",
                  "volatile": false
                }
              },
              {
                "name": "label",
                "type": {
                  "kind": "STRING"
                },
                "predicate": {
                  "name": "dims:product:class_id",
                  "volatile": false
                }
              }
            ],
            "caption": "class",
            "type": {
              "kind": "NAMED",
              "named": "dims:product:class"
            }
          }
        ],
        "edge": [
          {
            "source_level": "sku",
            "target_level": "category",
            "pred": {
              "name": "dims:product:sku2category",
              "volatile": false
            }
          },
          {
            "source_level": "category",
            "target_level": "class",
            "pred": {
              "name": "dims:product:category2class",
              "volatile": false
            }
          }
        ],
        "hierarchy": [
          {
            "name": "Primary",
            "path": [
              {
                "level": "sku",
                "pred": {
                  "name": "dims:product:sku2category",
                  "volatile": false
                }
              },
              {
                "level": "category",
                "pred": {
                  "name": "dims:product:category2class",
                  "volatile": false
                }
              },
              {
                "level": "class"
              }
            ]
          }
        ],
        "default_hierarchy": "Primary",
        "unwinds": true,
        "caption": "product"
      },
      {
        "name": "Datetime",
        "level": [
          {
            "name": "Datetime",
            "attribute": [
              {
                "name": "label",
                "type": {
                  "kind": "DATETIME"
                },
                "predicate": {
                  "name": "datetime:eq_2",
                  "volatile": false
                }
              },
              {
                "name": "id",
                "type": {
                  "kind": "DATETIME"
                },
                "predicate": {
                  "name": "datetime:eq_2",
                  "volatile": false
                }
              }
            ],
            "caption": "Datetime",
            "type": {
              "kind": "DATETIME"
            }
          }
        ],
        "hierarchy": [
          {
            "name": "Datetime",
            "path": [
              {
                "level": "Datetime"
              }
            ]
          }
        ],
        "unwinds": true,
        "caption": "Datetime"
      },
      {
        "name": "Int128",
        "level": [
          {
            "name": "Int128",
            "attribute": [
              {
                "name": "label",
                "type": {
                  "kind": "INT128"
                },
                "predicate": {
                  "name": "int128:eq_2",
                  "volatile": false
                }
              },
              {
                "name": "id",
                "type": {
                  "kind": "INT128"
                },
                "predicate": {
                  "name": "int128:eq_2",
                  "volatile": false
                }
              }
            ],
            "caption": "Int128",
            "type": {
              "kind": "INT128"
            }
          }
        ],
        "hierarchy": [
          {
            "name": "Int128",
            "path": [
              {
                "level": "Int128"
              }
            ]
          }
        ],
        "unwinds": true,
        "caption": "Int128"
      },
      {
        "name": "calendar",
        "level": [
          {
            "name": "year",
            "attribute": [
              {
                "name": "partitionid",
                "type": {
                  "kind": "INT"
                },
                "predicate": {
                  "name": "dims:calendar:year_num",
                  "volatile": false
                }
              },
              {
                "name": "id",
                "type": {
                  "kind": "STRING"
                },
                "predicate": {
                  "name": "dims:calendar:year_id",
                  "volatile": false
                }
              },
              {
                "name": "label",
                "type": {
                  "kind": "STRING"
                },
                "predicate": {
                  "name": "dims:calendar:year_id",
                  "volatile": false
                }
              }
            ],
            "caption": "year",
            "type": {
              "kind": "NAMED",
              "named": "dims:calendar:year"
            }
          },
          {
            "name": "month",
            "attribute": [
              {
                "name": "partitionid",
                "type": {
                  "kind": "INT"
                },
                "predicate": {
                  "name": "dims:calendar:month_num",
                  "volatile": false
                }
              },
              {
                "name": "id",
                "type": {
                  "kind": "STRING"
                },
                "predicate": {
                  "name": "dims:calendar:month_id",
                  "volatile": false
                }
              },
              {
                "name": "label",
                "type": {
                  "kind": "STRING"
                },
                "predicate": {
                  "name": "dims:calendar:month_id",
                  "volatile": false
                }
              }
            ],
            "caption": "month",
            "type": {
              "kind": "NAMED",
              "named": "dims:calendar:month"
            }
          },
          {
            "name": "day",
            "attribute": [
              {
                "name": "partitionid",
                "type": {
                  "kind": "INT"
                },
                "predicate": {
                  "name": "dims:calendar:day_num",
                  "volatile": false
                }
              },
              {
                "name": "id",
                "type": {
                  "kind": "STRING"
                },
                "predicate": {
                  "name": "dims:calendar:day_id",
                  "volatile": false
                }
              },
              {
                "name": "label",
                "type": {
                  "kind": "STRING"
                },
                "predicate": {
                  "name": "dims:calendar:day_id",
                  "volatile": false
                }
              }
            ],
            "caption": "day",
            "type": {
              "kind": "NAMED",
              "named": "dims:calendar:day"
            }
          }
        ],
        "edge": [
          {
            "source_level": "day",
            "target_level": "month",
            "pred": {
              "name": "dims:calendar:day2month",
              "volatile": false
            }
          },
          {
            "source_level": "month",
            "target_level": "year",
            "pred": {
              "name": "dims:calendar:month2year",
              "volatile": false
            }
          }
        ],
        "hierarchy": [
          {
            "name": "Primary",
            "path": [
              {
                "level": "day",
                "pred": {
                  "name": "dims:calendar:day2month",
                  "volatile": false
                }
              },
              {
                "level": "month",
                "pred": {
                  "name": "dims:calendar:month2year",
                  "volatile": false
                }
              },
              {
                "level": "year"
              }
            ]
          }
        ],
        "default_hierarchy": "Primary",
        "unwinds": true,
        "caption": "calendar"
      },
      {
        "name": "Decimal",
        "level": [
          {
            "name": "Decimal",
            "attribute": [
              {
                "name": "label",
                "type": {
                  "kind": "DECIMAL"
                },
                "predicate": {
                  "name": "decimal:eq_2",
                  "volatile": false
                }
              },
              {
                "name": "id",
                "type": {
                  "kind": "DECIMAL"
                },
                "predicate": {
                  "name": "decimal:eq_2",
                  "volatile": false
                }
              }
            ],
            "caption": "Decimal",
            "type": {
              "kind": "DECIMAL"
            }
          }
        ],
        "hierarchy": [
          {
            "name": "Decimal",
            "path": [
              {
                "level": "Decimal"
              }
            ]
          }
        ],
        "unwinds": true,
        "caption": "Decimal"
      },
      {
        "name": "Float",
        "level": [
          {
            "name": "Float",
            "attribute": [
              {
                "name": "label",
                "type": {
                  "kind": "FLOAT"
                },
                "predicate": {
                  "name": "float:eq_2",
                  "volatile": false
                }
              },
              {
                "name": "id",
                "type": {
                  "kind": "FLOAT"
                },
                "predicate": {
                  "name": "float:eq_2",
                  "volatile": false
                }
              }
            ],
            "caption": "Float",
            "type": {
              "kind": "FLOAT"
            }
          }
        ],
        "hierarchy": [
          {
            "name": "Float",
            "path": [
              {
                "level": "Float"
              }
            ]
          }
        ],
        "unwinds": true,
        "caption": "Float"
      },
      {
        "name": "String",
        "level": [
          {
            "name": "String",
            "attribute": [
              {
                "name": "label",
                "type": {
                  "kind": "STRING"
                },
                "predicate": {
                  "name": "string:eq_2",
                  "volatile": false
                }
              },
              {
                "name": "id",
                "type": {
                  "kind": "STRING"
                },
                "predicate": {
                  "name": "string:eq_2",
                  "volatile": false
                }
              }
            ],
            "caption": "String",
            "type": {
              "kind": "STRING"
            }
          }
        ],
        "hierarchy": [
          {
            "name": "String",
            "path": [
              {
                "level": "String"
              }
            ]
          }
        ],
        "unwinds": true,
        "caption": "String"
      }
    ],
    "metric": [
      {
        "name": "sales",
        "predicate": {
          "name": "metrics:sales:unit",
          "volatile": false
        },
        "caption": "sales",
        "generate_inverses": false,
        "signature": {
          "kind": "BASE",
          "base_signature": {
            "intersection": {
              "qualified_level": [
                {
                  "label": "product",
                  "dimension": "product",
                  "level": "sku"
                },
                {
                  "label": "location",
                  "dimension": "location",
                  "level": "store"
                },
                {
                  "label": "calendar",
                  "dimension": "calendar",
                  "level": "day"
                }
              ]
            },
            "type": {
              "kind": "SINGLETON",
              "type": {
                "kind": "INT"
              }
            }
          }
        }
      },
      {
        "name": "forecast",
        "predicate": {
          "name": "metrics:forecast:unit",
          "volatile": false
        },
        "caption": "forecast",
        "generate_inverses": false,
        "signature": {
          "kind": "BASE",
          "base_signature": {
            "intersection": {
              "qualified_level": [
                {
                  "label": "product",
                  "dimension": "product",
                  "level": "sku"
                },
                {
                  "label": "location",
                  "dimension": "location",
                  "level": "store"
                },
                {
                  "label": "calendar",
                  "dimension": "calendar",
                  "level": "day"
                }
              ]
            },
            "type": {
              "kind": "SINGLETON",
              "type": {
                "kind": "INT"
              }
            }
          }
        }
      }
    ],
    "operator": [
      {
        "name": "length",
        "impl": "ustring:length",
        "domain": [
          {
            "kind": "STRING"
          }
        ],
        "range": {
          "kind": "INT"
        }
      },
      {
        "name": "to_upper",
        "impl": "ustring:upper",
        "domain": [
          {
            "kind": "STRING"
          }
        ],
        "range": {
          "kind": "STRING"
        }
      },
      {
        "name": "pow",
        "impl": "float:pow",
        "domain": [
          {
            "kind": "FLOAT"
          },
          {
            "kind": "FLOAT"
          }
        ],
        "range": {
          "kind": "FLOAT"
        }
      },
      {
        "name": "floor",
        "impl": "float:floor",
        "domain": [
          {
            "kind": "FLOAT"
          }
        ],
        "range": {
          "kind": "FLOAT"
        }
      },
      {
        "name": "floor",
        "impl": "decimal:floor",
        "domain": [
          {
            "kind": "DECIMAL"
          }
        ],
        "range": {
          "kind": "DECIMAL"
        }
      },
      {
        "name": "round",
        "impl": "float:round",
        "domain": [
          {
            "kind": "FLOAT"
          }
        ],
        "range": {
          "kind": "FLOAT"
        }
      },
      {
        "name": "round",
        "impl": "decimal:round",
        "domain": [
          {
            "kind": "DECIMAL"
          }
        ],
        "range": {
          "kind": "DECIMAL"
        }
      },
      {
        "name": "ceil",
        "impl": "float:ceil",
        "domain": [
          {
            "kind": "FLOAT"
          }
        ],
        "range": {
          "kind": "FLOAT"
        }
      },
      {
        "name": "ceil",
        "impl": "decimal:ceil",
        "domain": [
          {
            "kind": "DECIMAL"
          }
        ],
        "range": {
          "kind": "DECIMAL"
        }
      },
      {
        "name": "log",
        "impl": "float:log",
        "domain": [
          {
            "kind": "FLOAT"
          }
        ],
        "range": {
          "kind": "FLOAT"
        }
      },
      {
        "name": "minimum",
        "impl": "int128:min",
        "domain": [
          {
            "kind": "INT128"
          },
          {
            "kind": "INT128"
          }
        ],
        "range": {
          "kind": "INT128"
        }
      },
      {
        "name": "minimum",
        "impl": "string:min",
        "domain": [
          {
            "kind": "STRING"
          },
          {
            "kind": "STRING"
          }
        ],
        "range": {
          "kind": "STRING"
        }
      },
      {
        "name": "minimum",
        "impl": "float:min",
        "domain": [
          {
            "kind": "FLOAT"
          },
          {
            "kind": "FLOAT"
          }
        ],
        "range": {
          "kind": "FLOAT"
        }
      },
      {
        "name": "minimum",
        "impl": "int:min",
        "domain": [
          {
            "kind": "INT"
          },
          {
            "kind": "INT"
          }
        ],
        "range": {
          "kind": "INT"
        }
      },
      {
        "name": "minimum",
        "impl": "decimal:min",
        "domain": [
          {
            "kind": "DECIMAL"
          },
          {
            "kind": "DECIMAL"
          }
        ],
        "range": {
          "kind": "DECIMAL"
        }
      },
      {
        "name": "maximum",
        "impl": "int128:max",
        "domain": [
          {
            "kind": "INT128"
          },
          {
            "kind": "INT128"
          }
        ],
        "range": {
          "kind": "INT128"
        }
      },
      {
        "name": "maximum",
        "impl": "string:max",
        "domain": [
          {
            "kind": "STRING"
          },
          {
            "kind": "STRING"
          }
        ],
        "range": {
          "kind": "STRING"
        }
      },
      {
        "name": "maximum",
        "impl": "float:max",
        "domain": [
          {
            "kind": "FLOAT"
          },
          {
            "kind": "FLOAT"
          }
        ],
        "range": {
          "kind": "FLOAT"
        }
      },
      {
        "name": "maximum",
        "impl": "int:max",
        "domain": [
          {
            "kind": "INT"
          },
          {
            "kind": "INT"
          }
        ],
        "range": {
          "kind": "INT"
        }
      },
      {
        "name": "maximum",
        "impl": "decimal:max",
        "domain": [
          {
            "kind": "DECIMAL"
          },
          {
            "kind": "DECIMAL"
          }
        ],
        "range": {
          "kind": "DECIMAL"
        }
      },
      {
        "name": "add",
        "impl": "int128:add",
        "domain": [
          {
            "kind": "INT128"
          },
          {
            "kind": "INT128"
          }
        ],
        "range": {
          "kind": "INT128"
        }
      },
      {
        "name": "add",
        "impl": "string:add",
        "domain": [
          {
            "kind": "STRING"
          },
          {
            "kind": "STRING"
          }
        ],
        "range": {
          "kind": "STRING"
        }
      },
      {
        "name": "add",
        "impl": "float:add",
        "domain": [
          {
            "kind": "FLOAT"
          },
          {
            "kind": "FLOAT"
          }
        ],
        "range": {
          "kind": "FLOAT"
        }
      },
      {
        "name": "add",
        "impl": "int:add",
        "domain": [
          {
            "kind": "INT"
          },
          {
            "kind": "INT"
          }
        ],
        "range": {
          "kind": "INT"
        }
      },
      {
        "name": "add",
        "impl": "decimal:add",
        "domain": [
          {
            "kind": "DECIMAL"
          },
          {
            "kind": "DECIMAL"
          }
        ],
        "range": {
          "kind": "DECIMAL"
        }
      },
      {
        "name": "round_half_up",
        "impl": "float:roundHalfUp",
        "domain": [
          {
            "kind": "FLOAT"
          }
        ],
        "range": {
          "kind": "FLOAT"
        }
      },
      {
        "name": "round_half_up",
        "impl": "decimal:roundHalfUp",
        "domain": [
          {
            "kind": "DECIMAL"
          }
        ],
        "range": {
          "kind": "DECIMAL"
        }
      },
      {
        "name": "divide",
        "impl": "int:divide",
        "domain": [
          {
            "kind": "INT"
          },
          {
            "kind": "INT"
          }
        ],
        "range": {
          "kind": "INT"
        }
      },
      {
        "name": "divide",
        "impl": "int128:divide",
        "domain": [
          {
            "kind": "INT128"
          },
          {
            "kind": "INT128"
          }
        ],
        "range": {
          "kind": "INT128"
        }
      },
      {
        "name": "divide",
        "impl": "decimal:divide",
        "domain": [
          {
            "kind": "DECIMAL"
          },
          {
            "kind": "DECIMAL"
          }
        ],
        "range": {
          "kind": "DECIMAL"
        }
      },
      {
        "name": "divide",
        "impl": "float:divide",
        "domain": [
          {
            "kind": "FLOAT"
          },
          {
            "kind": "FLOAT"
          }
        ],
        "range": {
          "kind": "FLOAT"
        }
      },
      {
        "name": "sqrt",
        "impl": "float:sqrt",
        "domain": [
          {
            "kind": "FLOAT"
          }
        ],
        "range": {
          "kind": "FLOAT"
        }
      },
      {
        "name": "multiply",
        "impl": "int:multiply",
        "domain": [
          {
            "kind": "INT"
          },
          {
            "kind": "INT"
          }
        ],
        "range": {
          "kind": "INT"
        }
      },
      {
        "name": "multiply",
        "impl": "int128:multiply",
        "domain": [
          {
            "kind": "INT128"
          },
          {
            "kind": "INT128"
          }
        ],
        "range": {
          "kind": "INT128"
        }
      },
      {
        "name": "multiply",
        "impl": "decimal:multiply",
        "domain": [
          {
            "kind": "DECIMAL"
          },
          {
            "kind": "DECIMAL"
          }
        ],
        "range": {
          "kind": "DECIMAL"
        }
      },
      {
        "name": "multiply",
        "impl": "float:multiply",
        "domain": [
          {
            "kind": "FLOAT"
          },
          {
            "kind": "FLOAT"
          }
        ],
        "range": {
          "kind": "FLOAT"
        }
      },
      {
        "name": "abs",
        "impl": "int:abs",
        "domain": [
          {
            "kind": "INT"
          }
        ],
        "range": {
          "kind": "INT"
        }
      },
      {
        "name": "abs",
        "impl": "int128:abs",
        "domain": [
          {
            "kind": "INT128"
          }
        ],
        "range": {
          "kind": "INT128"
        }
      },
      {
        "name": "abs",
        "impl": "decimal:abs",
        "domain": [
          {
            "kind": "DECIMAL"
          }
        ],
        "range": {
          "kind": "DECIMAL"
        }
      },
      {
        "name": "abs",
        "impl": "float:abs",
        "domain": [
          {
            "kind": "FLOAT"
          }
        ],
        "range": {
          "kind": "FLOAT"
        }
      },
      {
        "name": "subtract",
        "impl": "int:subtract",
        "domain": [
          {
            "kind": "INT"
          },
          {
            "kind": "INT"
          }
        ],
        "range": {
          "kind": "INT"
        }
      },
      {
        "name": "subtract",
        "impl": "int128:subtract",
        "domain": [
          {
            "kind": "INT128"
          },
          {
            "kind": "INT128"
          }
        ],
        "range": {
          "kind": "INT128"
        }
      },
      {
        "name": "subtract",
        "impl": "decimal:subtract",
        "domain": [
          {
            "kind": "DECIMAL"
          },
          {
            "kind": "DECIMAL"
          }
        ],
        "range": {
          "kind": "DECIMAL"
        }
      },
      {
        "name": "subtract",
        "impl": "float:subtract",
        "domain": [
          {
            "kind": "FLOAT"
          },
          {
            "kind": "FLOAT"
          }
        ],
        "range": {
          "kind": "FLOAT"
        }
      },
      {
        "name": "negate",
        "impl": "int:negate",
        "domain": [
          {
            "kind": "INT"
          }
        ],
        "range": {
          "kind": "INT"
        }
      },
      {
        "name": "negate",
        "impl": "int128:negate",
        "domain": [
          {
            "kind": "INT128"
          }
        ],
        "range": {
          "kind": "INT128"
        }
      },
      {
        "name": "negate",
        "impl": "decimal:negate",
        "domain": [
          {
            "kind": "DECIMAL"
          }
        ],
        "range": {
          "kind": "DECIMAL"
        }
      },
      {
        "name": "negate",
        "impl": "float:negate",
        "domain": [
          {
            "kind": "FLOAT"
          }
        ],
        "range": {
          "kind": "FLOAT"
        }
      },
      {
        "name": "mod",
        "impl": "int:mod",
        "domain": [
          {
            "kind": "INT"
          },
          {
            "kind": "INT"
          }
        ],
        "range": {
          "kind": "INT"
        }
      },
      {
        "name": "mod",
        "impl": "int128:mod",
        "domain": [
          {
            "kind": "INT128"
          },
          {
            "kind": "INT128"
          }
        ],
        "range": {
          "kind": "INT128"
        }
      },
      {
        "name": "to_lower",
        "impl": "ustring:lower",
        "domain": [
          {
            "kind": "STRING"
          }
        ],
        "range": {
          "kind": "STRING"
        }
      }
    ],
    "type": [
      {
        "type": "dims:calendar:day",
        "backing_type": {
          "kind": "STRING"
        },
        "conversion_pred": "dims:calendar:day_id"
      },
      {
        "type": "dims:product:class",
        "backing_type": {
          "kind": "STRING"
        },
        "conversion_pred": "dims:product:class_id"
      },
      {
        "type": "dims:product:sku",
        "backing_type": {
          "kind": "STRING"
        },
        "conversion_pred": "dims:product:sku_id"
      },
      {
        "type": "dims:product:category",
        "backing_type": {
          "kind": "STRING"
        },
        "conversion_pred": "dims:product:category_id"
      },
      {
        "type": "dims:location:region",
        "backing_type": {
          "kind": "STRING"
        },
        "conversion_pred": "dims:location:region_id"
      },
      {
        "type": "dims:calendar:year",
        "backing_type": {
          "kind": "STRING"
        },
        "conversion_pred": "dims:calendar:year_id"
      },
      {
        "type": "dims:location:store",
        "backing_type": {
          "kind": "STRING"
        },
        "conversion_pred": "dims:location:store_id"
      },
      {
        "type": "dims:calendar:month",
        "backing_type": {
          "kind": "STRING"
        },
        "conversion_pred": "dims:calendar:month_id"
      },
      {
        "type": "dims:location:country",
        "backing_type": {
          "kind": "STRING"
        },
        "conversion_pred": "dims:location:country_id"
      }
    ],
    "complete_model": true,
    "version": 1
  },
  "version": 1
}