{
    "kind": "QUERY",
    "query_request": {
        "report_name": "slightly_more_complex",
        "key": [
            {
                "qualified_level": {
                    "dimension": "Product",
                    "level": "category"
                },
                "attribute": "category_id"
            }
        ],
        "measure": [
            {
                "kind": "AGGREGATION",
                "aggregation": {
                    "method": "TOTAL",
                    "expr": [{
                        "kind": "METRIC",
                        "metric": {
                            "name": "Sales"
                        }
                    },
                    {
                        "kind": "METRIC",
                        "metric": {
                            "name": "Forecast"
                        }
                    }
                       
                          ],

                      
                    "grouping": 
                        {
                            "kind": "ALL",
                            "dimension": "Product"
                        }
                    
                }
            }
        ]
    }
}